<svg width="20" height="8" viewBox="0 0 20 8" fill="none" xmlns="http://www.w3.org/2000/svg">
<path d="M19.7192 4.35355C19.9145 4.15829 19.9145 3.84171 19.7192 3.64645L16.5373 0.464466C16.342 0.269204 16.0254 0.269204 15.8302 0.464466C15.6349 0.659728 15.6349 0.976311 15.8302 1.17157L18.6586 4L15.8302 6.82843C15.6349 7.02369 15.6349 7.34027 15.8302 7.53553C16.0254 7.7308 16.342 7.7308 16.5373 7.53553L19.7192 4.35355ZM0 4.5H19.3657V3.5H0V4.5Z" fill="white"/>
</svg>
