<svg width="306" height="79" viewBox="0 0 306 79" fill="none" xmlns="http://www.w3.org/2000/svg">
<g clip-path="url(#clip0_214_66)">
<path d="M259.146 38.2542H259.003H258.584C258.572 38.1518 258.555 38.0437 258.52 37.9243C258.486 37.8105 258.446 37.6968 258.4 37.583C258.256 37.2303 257.998 36.9061 257.619 36.6103C257.246 36.3145 256.684 36.1666 255.932 36.1666H254.623V39.6763C254.652 39.6763 254.68 39.6763 254.715 39.6706C254.749 39.6649 254.778 39.6649 254.807 39.6649C254.973 39.6479 255.134 39.6365 255.306 39.6365C255.473 39.6365 255.662 39.6365 255.874 39.6365H256.018C257.085 39.6365 257.895 39.7844 258.452 40.0745C259.008 40.3646 259.41 40.6888 259.645 41.0358C259.846 41.3373 259.967 41.616 260.007 41.8777C260.047 42.1394 260.064 42.31 260.064 42.401C260.064 43.2145 259.812 43.8061 259.307 44.1815C258.802 44.5512 258.251 44.8015 257.642 44.921C257.246 45.0063 256.873 45.0575 256.512 45.0689C256.15 45.0803 255.857 45.0859 255.622 45.0859H255.478H250.737V44.7162H251.225C251.271 44.7162 251.328 44.7162 251.386 44.7105C251.443 44.7048 251.501 44.6934 251.558 44.6764C251.69 44.6366 251.822 44.5569 251.943 44.4375C252.063 44.318 252.121 44.136 252.121 43.88V36.7639C252.121 36.5079 252.063 36.3202 251.943 36.2064C251.822 36.0926 251.696 36.013 251.558 35.9675C251.501 35.9504 251.443 35.9391 251.386 35.9334C251.328 35.9277 251.277 35.9277 251.225 35.9277H250.737V35.5522H250.881H259.14V38.2542H259.146ZM254.623 43.5501C254.623 43.6013 254.623 43.6582 254.629 43.715C254.635 43.7776 254.646 43.8402 254.663 43.9085C254.703 44.045 254.778 44.1701 254.893 44.2896C255.008 44.4033 255.197 44.4659 255.455 44.4773C255.541 44.4773 255.633 44.4716 255.719 44.4602C255.811 44.4488 255.897 44.4261 255.989 44.4033C256.334 44.3066 256.655 44.1075 256.948 43.8061C257.24 43.5046 257.39 43.0438 257.39 42.4352C257.39 41.7526 257.218 41.2577 256.879 40.9562C256.54 40.6547 256.161 40.4613 255.748 40.376C255.645 40.3589 255.536 40.3475 255.421 40.3305C255.312 40.3191 255.203 40.3077 255.1 40.3077C255.013 40.3077 254.933 40.3134 254.853 40.3134C254.778 40.3191 254.698 40.3305 254.623 40.3475V43.5501Z" fill="white"/>
<path d="M263.198 44.7162H263.686C263.732 44.7162 263.79 44.7162 263.847 44.7106C263.904 44.7049 263.962 44.6935 264.019 44.6764C264.151 44.6366 264.283 44.557 264.404 44.4375C264.524 44.3181 264.582 44.136 264.582 43.8801V36.7639C264.582 36.5079 264.524 36.3202 264.404 36.2065C264.283 36.0927 264.157 36.013 264.019 35.9675C263.962 35.9505 263.904 35.9391 263.847 35.9334C263.79 35.9277 263.738 35.9277 263.686 35.9277H263.198V35.5523H263.342H268.473V35.922H267.985C267.939 35.922 267.882 35.922 267.825 35.9277C267.767 35.9334 267.71 35.9448 267.652 35.9619C267.52 36.0017 267.388 36.0813 267.268 36.2008C267.147 36.3202 267.09 36.5022 267.09 36.7582V39.7162H268.387C268.473 38.5671 268.99 37.5546 269.937 36.6786C270.884 35.8026 272.152 35.3589 273.748 35.3589H273.892C275.585 35.3589 276.905 35.8424 277.852 36.8151C278.805 37.7878 279.281 38.9539 279.281 40.3191C279.281 41.69 278.805 42.8562 277.852 43.8232C276.899 44.7845 275.579 45.268 273.892 45.268L273.748 45.2794C272.193 45.268 271.004 44.8983 270.184 44.1588C269.363 43.4193 268.823 42.6059 268.559 41.7185C268.49 41.4796 268.439 41.2407 268.41 41.0131C268.376 40.7799 268.358 40.5581 268.358 40.3305H267.09V43.8801C267.09 44.136 267.147 44.3237 267.268 44.4375C267.388 44.5513 267.515 44.6309 267.652 44.6764C267.71 44.6935 267.767 44.7049 267.825 44.7106C267.882 44.7162 267.934 44.7162 267.985 44.7162H268.473V45.086H268.33H263.198V44.7162ZM271.699 43.2998C272.072 44.1872 272.778 44.6423 273.805 44.6707C274.661 44.6537 275.275 44.3465 275.654 43.7492C276.033 43.1519 276.279 42.5035 276.394 41.8038C276.434 41.5478 276.457 41.2919 276.474 41.0416C276.492 40.7913 276.497 40.5524 276.497 40.3305C276.497 40.1087 276.492 39.8698 276.474 39.6195C276.463 39.3635 276.434 39.1132 276.394 38.8572C276.279 38.1576 276.033 37.5034 275.659 36.9118C275.286 36.3145 274.666 36.0074 273.817 35.9903C272.973 36.0074 272.359 36.3145 271.98 36.9118C271.601 37.5091 271.36 38.1576 271.251 38.8572C271.205 39.1132 271.171 39.3692 271.159 39.6195C271.148 39.8698 271.136 40.1087 271.136 40.3305C271.136 41.417 271.326 42.4125 271.699 43.2998Z" fill="white"/>
<path d="M282.404 44.7162H282.892C282.938 44.7162 282.995 44.7162 283.047 44.7105C283.104 44.7048 283.161 44.6934 283.219 44.6764C283.351 44.6366 283.483 44.5569 283.603 44.4375C283.724 44.318 283.781 44.136 283.781 43.88V36.7639C283.781 36.5079 283.724 36.3202 283.603 36.2064C283.483 36.0926 283.357 36.013 283.219 35.9675C283.161 35.9504 283.104 35.9391 283.047 35.9334C282.989 35.9277 282.938 35.9277 282.892 35.9277H282.404V35.5522H282.547H287.977C288.161 35.5522 288.402 35.5636 288.7 35.5921C288.999 35.6205 289.303 35.6774 289.624 35.7741C290.112 35.9106 290.566 36.1495 290.973 36.4908C291.381 36.8321 291.587 37.3441 291.587 38.021C291.587 38.0551 291.587 38.0893 291.587 38.1234C291.587 38.1575 291.582 38.1916 291.57 38.2258C291.524 38.8401 291.197 39.409 290.6 39.9209C289.997 40.4329 288.964 40.6945 287.495 40.6945H287.351C287.196 40.6945 287.03 40.6888 286.852 40.6718C286.674 40.6604 286.49 40.649 286.295 40.6433V43.88C286.295 44.136 286.353 44.3237 286.473 44.4375C286.594 44.5512 286.72 44.6309 286.858 44.6764C286.915 44.6934 286.973 44.7048 287.03 44.7105C287.087 44.7162 287.139 44.7162 287.191 44.7162H287.879V45.0859H287.736H282.404V44.7162ZM286.295 40.0119C286.41 40.0404 286.536 40.0631 286.663 40.0802C286.795 40.0972 286.932 40.1029 287.076 40.1029C287.116 40.1029 287.156 40.1029 287.196 40.0972C287.242 40.0916 287.283 40.0916 287.317 40.0916C287.719 40.0461 288.092 39.8811 288.425 39.591C288.758 39.3009 288.93 38.7775 288.93 38.0267C288.93 37.3668 288.798 36.9118 288.528 36.6672C288.258 36.4226 287.96 36.269 287.633 36.2121C287.501 36.195 287.369 36.1837 287.242 36.1837C287.116 36.178 287.001 36.178 286.898 36.178H286.295V40.0119Z" fill="white"/>
<path d="M295.99 36.7641C296.977 35.8312 298.28 35.3647 299.904 35.3647H300.048C301.741 35.3647 303.061 35.8483 304.008 36.8153C304.961 37.7823 305.438 38.9541 305.438 40.325C305.438 41.6959 304.961 42.862 304.008 43.829C303.056 44.7904 301.735 45.2739 300.048 45.2739L299.904 45.2853C298.211 45.2739 296.891 44.7904 295.944 43.829C294.991 42.862 294.515 41.6959 294.515 40.325C294.509 38.8802 295.003 37.697 295.99 36.7641ZM297.316 41.036C297.333 41.292 297.356 41.5423 297.396 41.7983C297.511 42.5036 297.758 43.1521 298.131 43.7437C298.504 44.341 299.118 44.6482 299.973 44.6652C300.817 44.6482 301.431 44.341 301.81 43.7437C302.189 43.1464 302.43 42.498 302.539 41.7983C302.585 41.5423 302.619 41.2863 302.631 41.036C302.642 40.7858 302.654 40.5468 302.654 40.325C302.654 40.1032 302.648 39.8642 302.631 39.614C302.614 39.358 302.591 39.1077 302.55 38.8517C302.436 38.152 302.189 37.4979 301.816 36.9063C301.443 36.309 300.828 36.0018 299.973 35.9848C299.129 36.0018 298.515 36.309 298.136 36.9063C297.758 37.5036 297.517 38.152 297.408 38.8517C297.362 39.1077 297.327 39.3637 297.316 39.614C297.304 39.8642 297.293 40.1032 297.293 40.325C297.293 40.5468 297.298 40.7801 297.316 41.036Z" fill="white"/>
<path d="M11.2672 0V5.58597H5.63648V11.1719H0V79.0057H68.4471V73.4197H74.0778V67.8394H79.7143V0H11.2672ZM66.0306 76.6052H2.41645V13.5611H5.63648V73.4197H66.0363V76.6052H66.0306ZM17.1333 23.9935V22.543C18.3157 22.6909 19.9114 22.6454 21.3693 22.6454H22.7353C24.7385 22.6454 26.9713 22.543 28.9286 22.543C36.264 22.543 40.1786 25.3929 40.1786 31.1495C40.1786 35.6035 37.5842 38.2543 34.1231 39.7048C35.4432 42.0029 37.1767 45.359 38.8584 47.9074C41.7742 52.4069 43.324 54.6083 46.0102 55.1601L45.8724 56.4627L44.1907 56.3603C39.4554 56.3603 37.7219 55.1089 35.5351 51.7584C33.3023 48.3568 31.2532 42.4068 28.1996 41.0017C27.3788 41.0529 26.5121 41.0529 25.6511 41.0529V49.6082C25.6511 53.4081 25.7889 54.5116 28.699 54.7107L29.9732 54.8586V56.2579H28.4694C26.7819 56.2579 25.0542 56.2067 23.2749 56.2067H21.6792C20.6747 56.2067 19.6301 56.2579 18.5338 56.2579H17.03V54.8586L18.396 54.7107C21.0364 54.4092 20.9904 53.4137 20.9904 49.3579V28.4475C21.0019 24.7956 20.5485 24.2438 17.1333 23.9935ZM49.919 23.7944V22.543C52.0599 22.6454 54.155 22.7933 56.2959 22.7933C58.3909 22.7933 60.5778 22.6454 62.6728 22.543V23.7944C59.0281 24.295 58.5746 24.7956 58.5746 28.7945V50.0064C58.5746 54.011 59.0281 54.5059 62.6728 55.0065V56.2579C60.5778 56.1555 58.3909 56.0076 56.2959 56.0076C54.155 56.0076 52.0599 56.1555 49.919 56.2579V55.0065C53.5638 54.5059 53.8795 54.0053 53.8795 50.0064V28.7945C53.8852 24.7956 53.5638 24.295 49.919 23.7944ZM77.3036 65.4389H74.0835V5.58597H13.6837V2.3948H77.3036V65.4389Z" fill="white"/>
<path d="M35.2136 31.7467C35.2136 26.593 32.206 24.2949 28.3833 24.2949C25.9726 24.2949 25.6511 24.4428 25.6511 26.7978V39.2041C26.426 39.3065 27.0172 39.352 27.7461 39.352C32.6652 39.352 35.2136 36.3486 35.2136 31.7467Z" fill="white"/>
<path d="M306 54.6084H100.056V55.6323H306V54.6084Z" fill="white"/>
<path d="M117.672 12.0704H117.402H116.598C116.369 10.6028 115.749 9.36269 114.75 8.35585C113.751 7.34901 112.563 6.82568 111.191 6.79155C111.174 6.79155 111.163 6.79155 111.151 6.79155C111.14 6.79155 111.128 6.79155 111.111 6.79155C109.665 6.84274 108.339 7.50259 107.139 8.76541C105.934 10.0282 105.331 12.3149 105.331 15.6199C105.331 18.3958 105.876 20.5233 106.961 22.0136C108.046 23.4983 109.538 24.2605 111.432 24.2946C112.701 24.2605 113.797 23.8737 114.721 23.1399C115.651 22.4061 116.495 21.3765 117.264 20.0511H117.534L118.389 20.5289C117.855 21.6097 117.276 22.4857 116.65 23.157C116.024 23.8282 115.393 24.3572 114.75 24.7497C113.981 25.2105 113.235 25.512 112.5 25.6542C111.771 25.7964 111.099 25.8646 110.491 25.8646L110.221 25.8931C107.185 25.876 104.751 24.8692 102.903 22.8726C101.055 20.8759 100.136 18.4584 100.136 15.6313C100.136 12.8383 101.02 10.4321 102.783 8.40136C104.55 6.3763 106.978 5.36377 110.061 5.36377H110.33C111.168 5.36377 111.863 5.43772 112.42 5.5913C112.971 5.7392 113.464 5.89848 113.895 6.05775C113.964 6.09188 114.033 6.12601 114.096 6.14876C114.159 6.17721 114.228 6.20565 114.297 6.23978C114.618 6.36492 114.876 6.46731 115.071 6.54695C115.267 6.62659 115.445 6.67778 115.605 6.69485C115.835 6.66072 116.041 6.54695 116.219 6.36492C116.397 6.17721 116.524 5.84728 116.592 5.36946H116.862H117.666V12.0704H117.672Z" fill="white"/>
<path d="M124.347 8.24809C126.178 6.31973 128.6 5.3584 131.613 5.3584H131.883C135.023 5.3584 137.48 6.35955 139.242 8.35617C141.01 10.3528 141.893 12.7646 141.893 15.5975C141.893 18.4246 141.01 20.8364 139.242 22.8274C137.474 24.8183 135.023 25.8081 131.883 25.8081L131.613 25.8365C128.474 25.8194 126.023 24.8183 124.255 22.8274C122.487 20.8364 121.609 18.4303 121.609 15.5975C121.609 12.6224 122.522 10.1764 124.347 8.24809ZM126.809 17.0651C126.838 17.5884 126.884 18.1117 126.959 18.6407C127.171 20.0913 127.624 21.428 128.325 22.6567C129.019 23.8854 130.161 24.5168 131.751 24.5509C133.318 24.5168 134.46 23.8854 135.166 22.6567C135.872 21.428 136.32 20.0913 136.515 18.6407C136.607 18.1117 136.665 17.5827 136.687 17.0651C136.716 16.5417 136.728 16.0525 136.728 15.5918C136.728 15.131 136.716 14.6418 136.687 14.1185C136.659 13.5951 136.613 13.0718 136.538 12.5371C136.326 11.0866 135.867 9.74982 135.172 8.52113C134.478 7.29244 133.335 6.66103 131.745 6.6269C130.173 6.66103 129.036 7.29244 128.336 8.52113C127.63 9.74982 127.182 11.0923 126.981 12.5371C126.89 13.0661 126.832 13.5951 126.809 14.1185C126.781 14.6418 126.769 15.131 126.769 15.5918C126.775 16.0525 126.786 16.5474 126.809 17.0651Z" fill="white"/>
<path d="M151.605 5.75618L161.558 18.0374V8.24768C161.558 7.71866 161.449 7.33185 161.225 7.09294C161.001 6.85403 160.766 6.68907 160.519 6.60374C160.41 6.56961 160.307 6.54686 160.198 6.53548C160.089 6.52979 159.991 6.52411 159.905 6.52411H158.992V5.75618H159.262H165.685V6.52411H164.772C164.68 6.52411 164.583 6.52979 164.48 6.53548C164.371 6.54686 164.267 6.56392 164.158 6.60374C163.906 6.69476 163.67 6.85403 163.446 7.09294C163.223 7.33185 163.114 7.71866 163.114 8.24768V25.8304H162.844H162.092L149.034 9.7039V22.9407C149.034 23.4697 149.143 23.8565 149.367 24.0955C149.591 24.3344 149.826 24.4993 150.073 24.5847C150.182 24.6188 150.285 24.6415 150.394 24.6529C150.503 24.6643 150.601 24.6643 150.687 24.6643H151.599V25.4322H151.33H144.907V24.6643H145.82C145.906 24.6643 146.009 24.6586 146.112 24.6529C146.221 24.6415 146.325 24.6245 146.434 24.5847C146.68 24.4936 146.922 24.3344 147.145 24.0955C147.369 23.8565 147.478 23.4697 147.478 22.9407V8.16804C147.461 8.13391 147.438 8.09978 147.409 8.05996C147.381 8.02583 147.352 7.9917 147.318 7.95188C146.945 7.457 146.554 7.09863 146.152 6.87678C145.751 6.65494 145.274 6.53548 144.723 6.51842V5.75049H144.993H151.605V5.75618Z" fill="white"/>
<path d="M183.077 11.5644H182.807H182.055C181.802 10.1139 181.159 8.98758 180.115 8.18552C179.07 7.37777 177.951 6.88288 176.757 6.68948C176.596 6.67241 176.441 6.65535 176.286 6.63828C176.137 6.62122 175.976 6.60984 175.821 6.60984C174.909 6.6269 174.214 6.82031 173.732 7.19574C173.25 7.56548 172.929 7.98073 172.768 8.44149C172.716 8.5837 172.676 8.72591 172.647 8.86812C172.619 9.01033 172.607 9.14116 172.607 9.26631C172.607 10.2561 172.974 10.9785 173.703 11.4393C174.432 11.9 175.345 12.3153 176.436 12.685C176.527 12.7191 176.619 12.7533 176.717 12.776C176.814 12.8045 176.918 12.8329 177.027 12.867C177.256 12.9353 177.492 13.0149 177.721 13.0946C177.951 13.1742 178.186 13.2595 178.416 13.3449C179.845 13.8397 181.148 14.5337 182.325 15.4268C183.501 16.3199 184.092 17.6965 184.092 19.5509C184.092 21.4451 183.398 22.9639 182.003 24.1129C180.614 25.262 178.915 25.8365 176.918 25.8365L176.648 25.865C175.913 25.8479 175.276 25.7739 174.719 25.6374C174.168 25.5066 173.692 25.3701 173.302 25.2279C173.158 25.1767 173.02 25.1198 172.888 25.0686C172.756 25.0174 172.636 24.9605 172.527 24.9093C172.24 24.7671 171.999 24.6647 171.804 24.5908C171.608 24.5225 171.43 24.477 171.27 24.4599C171.04 24.4941 170.811 24.6363 170.587 24.8809C170.363 25.1312 170.208 25.4383 170.116 25.8081L169.846 25.8365H169.071V18.4871H169.341H170.116C170.598 20.626 171.408 22.1448 172.55 23.0378C173.692 23.9309 174.897 24.4201 176.16 24.5111C176.212 24.5282 176.269 24.5396 176.332 24.5396C176.395 24.5396 176.453 24.5396 176.504 24.5396C177.985 24.5054 179.047 24.1528 179.69 23.4758C180.333 22.8046 180.654 22.0367 180.654 21.1664C180.654 20.1425 180.241 19.3745 179.409 18.874C178.577 18.3677 177.584 17.9183 176.424 17.5087C176.332 17.4746 176.246 17.4405 176.154 17.4177C176.062 17.3893 175.976 17.3608 175.885 17.3267C175.672 17.2528 175.454 17.1788 175.23 17.0992C175.006 17.0195 174.777 16.9342 174.547 16.8489C173.21 16.354 171.987 15.6771 170.879 14.8181C169.772 13.9592 169.221 12.6736 169.221 10.9614C169.221 10.7111 169.238 10.4609 169.272 10.2049C169.307 9.94891 169.37 9.68724 169.462 9.41989C169.783 8.41305 170.443 7.48585 171.442 6.63259C172.441 5.78503 173.853 5.3584 175.672 5.3584H175.942C176.654 5.3584 177.291 5.41528 177.853 5.52905C178.416 5.64282 178.892 5.77365 179.288 5.91586C179.483 5.98981 179.656 6.05238 179.811 6.11495C179.96 6.17752 180.092 6.23441 180.201 6.2856C180.448 6.41075 180.654 6.50176 180.815 6.56433C180.976 6.6269 181.119 6.66672 181.246 6.68379C181.55 6.64966 181.739 6.52451 181.819 6.31404C181.9 6.10357 181.94 5.83622 181.94 5.51767V5.3584H182.21H182.962L183.077 11.5644Z" fill="white"/>
<path d="M197.478 5.75635V6.52428H196.565C196.473 6.52428 196.376 6.52997 196.272 6.53565C196.163 6.54703 196.06 6.5641 195.951 6.60391C195.698 6.69493 195.463 6.8542 195.245 7.09311C195.021 7.33202 194.912 7.71883 194.912 8.24785V20.0228C194.912 21.2799 195.262 22.2754 195.968 23.0092C196.674 23.743 197.696 24.1298 199.033 24.1639C199.159 24.1639 199.28 24.1582 199.395 24.1525C199.51 24.1411 199.63 24.1298 199.756 24.1127C200.824 23.9705 201.805 23.4984 202.701 22.6963C203.591 21.8942 204.038 20.5518 204.038 18.6803V8.24785C204.038 7.71883 203.923 7.33202 203.705 7.09311C203.481 6.8542 203.246 6.68924 202.999 6.60391C202.89 6.56978 202.787 6.54703 202.678 6.53565C202.569 6.52997 202.471 6.52428 202.385 6.52428H201.467V5.75635H201.737H208.159V6.52428H207.247C207.155 6.52428 207.057 6.52997 206.954 6.53565C206.845 6.54703 206.742 6.5641 206.633 6.60391C206.38 6.69493 206.145 6.8542 205.921 7.09311C205.697 7.33202 205.588 7.71883 205.588 8.24785V18.8055C205.588 20.7167 205.175 22.1559 204.342 23.1286C203.516 24.1013 202.609 24.7839 201.628 25.1707C200.824 25.4722 200.072 25.6542 199.366 25.7168C198.66 25.7794 198.166 25.8078 197.879 25.8078L197.61 25.8363C195.36 25.8192 193.735 25.404 192.725 24.5905C191.715 23.7771 191.038 22.8726 190.676 21.8829C190.464 21.2628 190.337 20.6655 190.303 20.0796C190.268 19.4937 190.251 19.0159 190.251 18.6462V8.24785C190.251 7.71883 190.142 7.33202 189.918 7.09311C189.694 6.8542 189.459 6.68924 189.212 6.60391C189.103 6.56978 189 6.54703 188.891 6.53565C188.782 6.52997 188.684 6.52428 188.598 6.52428H187.686V5.75635H187.955H197.478Z" fill="white"/>
<path d="M210.989 24.6645H211.902C211.994 24.6645 212.091 24.6588 212.195 24.6531C212.304 24.6417 212.407 24.6247 212.516 24.5848C212.768 24.4938 213.004 24.3345 213.228 24.0956C213.452 23.8567 213.561 23.4699 213.561 22.9409V8.24785C213.561 7.71883 213.452 7.33202 213.228 7.09311C213.004 6.8542 212.768 6.68924 212.516 6.60391C212.407 6.56978 212.304 6.54703 212.195 6.53565C212.085 6.52997 211.988 6.52428 211.902 6.52428H210.989V5.75635H211.259H220.787V6.52428H219.874C219.783 6.52428 219.685 6.52997 219.582 6.53565C219.473 6.54703 219.369 6.5641 219.26 6.60391C219.008 6.69493 218.772 6.8542 218.548 7.09311C218.325 7.33202 218.216 7.71883 218.216 8.24785V22.6223C218.216 23.3277 218.405 23.76 218.778 23.925C219.151 24.0843 219.828 24.1639 220.81 24.1639C221.131 24.1639 221.47 24.1411 221.826 24.0956C222.182 24.0501 222.538 23.9762 222.893 23.8681C223.749 23.6007 224.564 23.0319 225.327 22.1445C226.091 21.2628 226.653 19.8009 227.015 17.7702H227.284H228.059L227.284 25.4381H227.015H210.983V24.6645H210.989Z" fill="white"/>
<path d="M240.698 22.9409C240.698 23.4699 240.807 23.8567 241.031 24.0956C241.255 24.3345 241.49 24.4995 241.737 24.5848C241.846 24.619 241.95 24.6417 242.059 24.6531C242.168 24.6645 242.265 24.6645 242.351 24.6645H243.448V25.4324H243.178H233.277V24.6645H234.373C234.465 24.6645 234.562 24.6588 234.666 24.6531C234.775 24.6417 234.878 24.6247 234.987 24.5848C235.234 24.4938 235.475 24.3345 235.699 24.0956C235.923 23.8567 236.032 23.4699 236.032 22.9409V7.03054H235.498C235.481 7.03054 235.464 7.03054 235.446 7.03054C235.251 7.03054 235.05 7.03054 234.844 7.03054C234.637 7.03054 234.436 7.04761 234.241 7.08174C233.489 7.15569 232.789 7.45148 232.129 7.98619C231.469 8.5152 231.033 9.63012 230.82 11.3253H230.55H229.776V5.75635H230.045H246.96V11.3253H246.691H245.916C245.703 9.63012 245.261 8.5152 244.607 7.98619C243.947 7.45717 243.241 7.15569 242.495 7.08174C242.3 7.04761 242.099 7.03054 241.892 7.03054C241.686 7.03054 241.485 7.03054 241.29 7.03054C241.272 7.03054 241.255 7.03054 241.238 7.03054H240.704V22.9409H240.698Z" fill="white"/>
<path d="M249.606 24.6645H250.513C250.605 24.6645 250.703 24.6588 250.806 24.6531C250.915 24.6417 251.018 24.6247 251.128 24.5848C251.38 24.4938 251.615 24.3345 251.839 24.0956C252.063 23.8567 252.172 23.4699 252.172 22.9409V8.24785C252.172 7.71883 252.063 7.33202 251.839 7.09311C251.615 6.8542 251.38 6.68924 251.128 6.60391C251.018 6.56978 250.915 6.54703 250.806 6.53565C250.697 6.52997 250.599 6.52428 250.513 6.52428H249.606V5.75635H249.876H259.404V6.52428H258.497C258.406 6.52428 258.308 6.52997 258.205 6.53565C258.096 6.54703 257.992 6.5641 257.883 6.60391C257.631 6.69493 257.395 6.8542 257.177 7.09311C256.953 7.33202 256.844 7.71883 256.844 8.24785V22.9409C256.844 23.4699 256.953 23.8567 257.177 24.0956C257.401 24.3345 257.636 24.4995 257.883 24.5848C257.992 24.619 258.096 24.6417 258.205 24.6531C258.314 24.6645 258.411 24.6645 258.497 24.6645H259.404V25.4324H259.135H249.606V24.6645Z" fill="white"/>
<path d="M268.932 5.75618L278.885 18.0374V8.24768C278.885 7.71866 278.776 7.33185 278.552 7.09294C278.328 6.85403 278.093 6.68907 277.841 6.60374C277.732 6.56961 277.628 6.54686 277.519 6.53548C277.41 6.52979 277.312 6.52411 277.226 6.52411H276.32V5.75618H276.589H283.012V6.52411H282.105C282.013 6.52411 281.916 6.52979 281.813 6.53548C281.703 6.54686 281.6 6.56392 281.491 6.60374C281.239 6.69476 281.003 6.85403 280.779 7.09294C280.555 7.33185 280.446 7.71866 280.446 8.24768V25.8304H280.177H279.425L266.367 9.7039V22.9407C266.367 23.4697 266.476 23.8565 266.7 24.0955C266.923 24.3344 267.159 24.4993 267.411 24.5847C267.52 24.6188 267.624 24.6415 267.733 24.6529C267.842 24.6643 267.939 24.6643 268.026 24.6643H268.932V25.4322H268.663H262.24V24.6643H263.147C263.233 24.6643 263.336 24.6586 263.439 24.6529C263.548 24.6415 263.652 24.6245 263.761 24.5847C264.013 24.4936 264.249 24.3344 264.473 24.0955C264.696 23.8565 264.806 23.4697 264.806 22.9407V8.16804C264.788 8.13391 264.765 8.09978 264.737 8.05996C264.708 8.02583 264.679 7.9917 264.645 7.95188C264.272 7.457 263.881 7.09863 263.48 6.87678C263.078 6.65494 262.601 6.53548 262.045 6.51842V5.75049H262.314H268.932V5.75618Z" fill="white"/>
<path d="M303.187 24.0274C301.936 24.7669 300.708 25.2504 299.497 25.4723C298.286 25.6941 297.086 25.8022 295.909 25.8022L295.64 25.8306C292.448 25.8136 290.015 24.7954 288.35 22.7817C286.68 20.768 285.848 18.3789 285.848 15.62C285.848 12.7759 286.714 10.3526 288.442 8.35031C290.17 6.35369 292.552 5.35254 295.588 5.35254H295.858C296.891 5.35254 297.689 5.4208 298.24 5.56301C298.791 5.70522 299.239 5.86449 299.577 6.04083C299.703 6.11478 299.824 6.17735 299.939 6.23992C300.054 6.3025 300.168 6.37076 300.272 6.43902C300.432 6.50728 300.587 6.56985 300.742 6.62673C300.892 6.67793 301.075 6.71775 301.293 6.73481C301.506 6.70068 301.695 6.56416 301.856 6.33663C302.017 6.1034 302.126 5.77917 302.177 5.35254H302.447H303.199V11.8487H302.929H302.177C301.73 10.5233 301.196 9.49936 300.57 8.77125C299.944 8.04314 299.302 7.51412 298.642 7.1785C298.286 7.00216 297.924 6.87133 297.557 6.79169C297.189 6.71206 296.839 6.66086 296.501 6.6438C296.288 6.6438 296.07 6.65517 295.858 6.68362C295.645 6.71206 295.427 6.75757 295.215 6.83151C294.165 7.11593 293.2 7.89524 292.339 9.18081C291.473 10.4607 291.042 12.7303 291.042 15.9841C291.042 19.4483 291.53 21.7407 292.517 22.8556C293.499 23.9706 294.693 24.5451 296.105 24.5792C296.351 24.5792 296.592 24.5621 296.828 24.528C297.057 24.4939 297.281 24.437 297.499 24.3687C297.677 24.3175 297.849 24.255 298.022 24.181C298.188 24.1128 298.366 24.0274 298.544 23.9421V18.504C298.544 17.884 298.383 17.446 298.062 17.1786C297.74 16.9113 297.161 16.7805 296.323 16.7805H295.869V16.0353H296.139H305.506V16.7805H305.426C304.588 16.7805 304.008 16.9113 303.687 17.1786C303.365 17.446 303.205 17.884 303.205 18.504V24.0274H303.187Z" fill="white"/>
<path d="M99.9758 44.7161H100.062C100.274 44.7161 100.452 44.6819 100.596 44.6194C100.739 44.5568 100.871 44.4317 100.997 44.2382C101.055 44.1586 101.112 44.0676 101.164 43.9595C101.216 43.8514 101.273 43.732 101.33 43.5898L104.918 35.353H105.061H105.406L109.487 44.096C109.498 44.1074 109.504 44.1131 109.51 44.1302C109.515 44.1415 109.515 44.1529 109.515 44.1643C109.59 44.3008 109.693 44.426 109.814 44.5454C109.934 44.6592 110.112 44.7161 110.353 44.7161H110.399V45.0858H110.256H105.4V44.7161H105.848C106.301 44.7161 106.577 44.6649 106.674 44.5568C106.777 44.4487 106.823 44.3293 106.823 44.2041C106.823 44.1359 106.818 44.0847 106.8 44.0448C106.789 44.005 106.772 43.9652 106.749 43.9197C106.737 43.9026 106.732 43.8913 106.726 43.8799C106.72 43.8685 106.72 43.8628 106.72 43.8514L105.957 42.1677H102.8L102.18 43.5955C102.168 43.6125 102.163 43.6296 102.157 43.6467C102.151 43.6637 102.145 43.6865 102.134 43.7092C102.122 43.7377 102.117 43.7661 102.105 43.8002C102.094 43.8344 102.088 43.8685 102.077 43.9026C102.065 43.9481 102.059 43.988 102.048 44.0335C102.036 44.0733 102.036 44.1131 102.036 44.1472C102.036 44.3805 102.145 44.5284 102.369 44.5966C102.587 44.6649 102.828 44.7047 103.087 44.7104C103.115 44.7104 103.144 44.7104 103.173 44.7104C103.202 44.7104 103.23 44.7104 103.259 44.7104H103.316V45.0801H103.173H99.9758V44.7161ZM103.075 41.5533H105.727L104.332 38.6238L103.075 41.5533Z" fill="white"/>
<path d="M122.677 35.5522V35.922H122.189C122.16 35.922 122.103 35.9277 122.017 35.9334C121.93 35.9447 121.844 35.9675 121.758 36.013C121.643 36.0528 121.54 36.1325 121.443 36.2519C121.345 36.3657 121.299 36.5363 121.299 36.7582V44.045C121.299 44.2611 121.379 44.3806 121.54 44.4147C121.701 44.4488 121.879 44.4659 122.08 44.4659C122.091 44.4659 122.103 44.4659 122.114 44.4659C122.126 44.4659 122.143 44.4659 122.166 44.4659H122.786V47.4239H122.642H122.223V47.1793C122.223 47.0484 122.212 46.9119 122.189 46.7697C122.166 46.6218 122.126 46.4739 122.068 46.3203C121.942 46.0131 121.701 45.7287 121.345 45.4728C120.989 45.2168 120.45 45.0859 119.732 45.0859H115.066C114.991 45.0859 114.911 45.0859 114.836 45.0859C114.761 45.0859 114.681 45.0859 114.606 45.0859C114.182 45.1201 113.786 45.2793 113.413 45.5638C113.04 45.8482 112.793 46.4625 112.678 47.4125L112.534 47.4239H112.115L112.23 44.4659H112.649C113.504 44.4659 114.193 43.7776 114.71 42.401C115.226 41.0245 115.49 39.3976 115.49 37.5204C115.49 36.8378 115.433 36.3941 115.318 36.2064C115.203 36.013 114.968 35.9163 114.612 35.9163H114.01V35.5522H114.153H122.677ZM118.785 36.1723H116.351V36.7525C116.351 38.3395 116.254 39.773 116.059 41.0643C115.864 42.3555 115.29 43.4932 114.337 44.4773H118.791V36.1723H118.785Z" fill="white"/>
<path d="M126.189 44.7162H126.677C126.723 44.7162 126.775 44.7162 126.832 44.7105C126.89 44.7048 126.947 44.6934 127.005 44.6764C127.137 44.6366 127.269 44.5569 127.389 44.4375C127.51 44.3237 127.567 44.136 127.567 43.88V36.7639C127.567 36.5079 127.51 36.3202 127.389 36.2064C127.269 36.0926 127.142 36.013 127.005 35.9675C126.947 35.9504 126.89 35.9391 126.832 35.9334C126.775 35.9277 126.723 35.9277 126.677 35.9277H126.189V35.5522H126.333H131.275C132.331 35.5522 133.129 35.6831 133.657 35.9447C134.191 36.2064 134.564 36.4908 134.776 36.798C134.943 37.0312 135.04 37.2474 135.08 37.4578C135.121 37.6683 135.138 37.8219 135.138 37.9243C135.138 38.5386 134.931 39.0222 134.518 39.3578C134.105 39.6934 133.651 39.9095 133.163 40.0062C133.077 40.0176 132.991 40.0233 132.911 40.0404C132.83 40.0517 132.744 40.0574 132.658 40.0574V40.211C132.773 40.2167 132.894 40.2338 133.02 40.2508C133.146 40.2679 133.267 40.2907 133.381 40.3134C133.921 40.4442 134.409 40.6888 134.851 41.0529C135.293 41.4169 135.511 41.9232 135.511 42.5774C135.511 43.351 135.258 43.9085 134.747 44.2554C134.237 44.6024 133.674 44.83 133.06 44.9437C132.733 45.0063 132.411 45.0404 132.101 45.0575C131.791 45.0746 131.516 45.0803 131.286 45.0803H131.143H126.184V44.7162H126.189ZM130.081 39.8868L130.644 39.8982C131.309 39.8925 131.774 39.7104 132.056 39.3634C132.331 39.0165 132.486 38.6353 132.515 38.2258C132.526 38.1916 132.526 38.1575 132.526 38.1234C132.526 38.0893 132.526 38.0551 132.526 38.021C132.526 37.4123 132.354 36.9743 132.01 36.707C131.665 36.4396 131.286 36.2747 130.873 36.2064C130.776 36.1893 130.678 36.178 130.586 36.1666C130.489 36.1552 130.391 36.1552 130.299 36.1552C130.259 36.1552 130.225 36.1552 130.19 36.1552C130.156 36.1552 130.121 36.1609 130.081 36.1666V39.8868ZM130.081 43.533C130.081 43.5842 130.081 43.6468 130.087 43.715C130.093 43.7833 130.104 43.8516 130.121 43.9198C130.161 44.0507 130.236 44.1701 130.351 44.2896C130.466 44.4033 130.661 44.4659 130.925 44.4773C131.539 44.4602 132.01 44.2611 132.337 43.88C132.664 43.4989 132.825 43.0154 132.825 42.4352C132.825 42.3328 132.813 42.2019 132.796 42.0484C132.779 41.8948 132.727 41.7355 132.652 41.5705C132.526 41.3032 132.302 41.0586 131.981 40.8367C131.659 40.6149 131.154 40.5011 130.477 40.5011H130.075V43.533H130.081Z" fill="white"/>
<path d="M140.711 36.7636C141.693 35.8307 143.001 35.3643 144.626 35.3643H144.769C146.462 35.3643 147.782 35.8478 148.73 36.8148C149.682 37.7818 150.159 38.9536 150.159 40.3245C150.159 41.6954 149.682 42.8615 148.73 43.8285C147.777 44.7899 146.457 45.2734 144.769 45.2734L144.626 45.2848C142.932 45.2734 141.612 44.7899 140.665 43.8285C139.712 42.8615 139.236 41.6954 139.236 40.3245C139.23 38.8797 139.724 37.6965 140.711 36.7636ZM142.037 41.0356C142.054 41.2858 142.077 41.5418 142.117 41.7978C142.232 42.5032 142.479 43.1516 142.852 43.7432C143.225 44.3405 143.839 44.6477 144.694 44.6647C145.538 44.6477 146.152 44.3405 146.531 43.7432C146.91 43.1459 147.157 42.4975 147.26 41.7978C147.306 41.5418 147.341 41.2858 147.352 41.0356C147.369 40.7796 147.375 40.5464 147.375 40.3245C147.375 40.1027 147.369 39.8638 147.352 39.6135C147.341 39.3575 147.312 39.1072 147.272 38.8512C147.157 38.1516 146.91 37.4974 146.537 36.9058C146.164 36.3085 145.544 36.0014 144.694 35.9843C143.851 36.0014 143.237 36.3085 142.858 36.9058C142.479 37.5031 142.238 38.1516 142.129 38.8512C142.083 39.1072 142.048 39.3632 142.037 39.6135C142.025 39.8638 142.014 40.1027 142.014 40.3245C142.014 40.5464 142.02 40.7796 142.037 41.0356Z" fill="white"/>
<path d="M160.559 36.8264C160.645 36.7297 160.709 36.6501 160.754 36.5818C160.8 36.5136 160.829 36.4453 160.846 36.3771C160.846 36.3657 160.846 36.36 160.846 36.3429C160.846 36.3316 160.846 36.3202 160.846 36.3088C160.846 36.195 160.806 36.104 160.732 36.0301C160.657 35.9561 160.513 35.922 160.313 35.922H159.779V35.5522H159.922H163.883V35.922C163.343 35.9334 162.907 36.0016 162.58 36.1325C162.247 36.2633 161.943 36.4624 161.667 36.7184C161.61 36.7696 161.552 36.8208 161.495 36.8776C161.438 36.9345 161.38 36.9914 161.323 37.0483L159.48 38.9482L163.096 44.0393C163.108 44.0507 163.114 44.0564 163.119 44.0677C163.125 44.0791 163.131 44.0848 163.142 44.0962C163.269 44.2668 163.401 44.409 163.538 44.5285C163.676 44.6423 163.865 44.7048 164.107 44.7162V45.0859H163.963H159.423V44.7162H159.756C159.899 44.7162 160.026 44.6991 160.14 44.665C160.249 44.6309 160.307 44.5455 160.307 44.409C160.307 44.3863 160.295 44.3465 160.278 44.2953C160.261 44.2441 160.232 44.1929 160.203 44.1417C160.192 44.1303 160.186 44.1246 160.181 44.1075C160.175 44.0962 160.169 44.0848 160.158 44.0734C160.14 44.0279 160.117 43.9938 160.094 43.9653C160.071 43.9369 160.054 43.9085 160.043 43.88L157.821 40.6547L157.563 40.9107V43.88C157.563 44.136 157.626 44.3237 157.741 44.4375C157.862 44.5512 157.988 44.6309 158.126 44.6764C158.183 44.6934 158.24 44.7048 158.298 44.7105C158.355 44.7162 158.407 44.7162 158.459 44.7162H158.849V45.0859H158.705H153.677V44.7162H154.171C154.217 44.7162 154.269 44.7162 154.326 44.7105C154.383 44.7048 154.441 44.6934 154.498 44.6764C154.63 44.6366 154.762 44.5569 154.883 44.4375C155.003 44.3237 155.061 44.136 155.061 43.88V36.7639C155.061 36.5079 154.997 36.3202 154.883 36.2064C154.762 36.0926 154.636 36.013 154.498 35.9675C154.441 35.9504 154.383 35.9391 154.326 35.9334C154.269 35.9277 154.217 35.9277 154.171 35.9277H153.677V35.5522H153.821H158.952V35.922H158.464C158.418 35.922 158.367 35.922 158.304 35.9277C158.246 35.9334 158.189 35.9447 158.131 35.9618C157.999 36.0016 157.867 36.0813 157.747 36.2007C157.626 36.3145 157.569 36.5022 157.569 36.7582V39.9835L160.559 36.8264Z" fill="white"/>
<path d="M166.006 44.7161H166.093C166.305 44.7161 166.483 44.6819 166.626 44.6194C166.77 44.5568 166.902 44.4317 167.028 44.2382C167.085 44.1586 167.143 44.0676 167.195 43.9595C167.246 43.8514 167.304 43.732 167.361 43.5898L170.948 35.353H171.092H171.436L175.517 44.096C175.529 44.1074 175.534 44.1131 175.54 44.1302C175.546 44.1415 175.546 44.1529 175.546 44.1643C175.621 44.3008 175.724 44.426 175.844 44.5454C175.965 44.6592 176.143 44.7161 176.384 44.7161H176.43V45.0858H176.286H171.431V44.7161H171.878C172.332 44.7161 172.607 44.6649 172.705 44.5568C172.802 44.4487 172.854 44.3293 172.854 44.2041C172.854 44.1359 172.848 44.0847 172.831 44.0448C172.814 44.005 172.802 43.9652 172.779 43.9197C172.768 43.9026 172.762 43.8913 172.756 43.8799C172.751 43.8685 172.751 43.8628 172.751 43.8514L171.987 42.1677H168.83L168.21 43.5955C168.199 43.6125 168.193 43.6296 168.188 43.6467C168.182 43.6637 168.176 43.6865 168.165 43.7092C168.153 43.7377 168.147 43.7661 168.136 43.8002C168.124 43.8344 168.119 43.8685 168.107 43.9026C168.096 43.9481 168.09 43.988 168.078 44.0335C168.067 44.0733 168.061 44.1131 168.061 44.1472C168.061 44.3805 168.17 44.5284 168.394 44.5966C168.612 44.6649 168.853 44.7047 169.117 44.7104C169.146 44.7104 169.175 44.7104 169.203 44.7104C169.232 44.7104 169.261 44.7104 169.29 44.7104H169.347V45.0801H169.203H166.006V44.7161ZM169.106 41.5533H171.758L170.357 38.6238L169.106 41.5533Z" fill="white"/>
<path d="M184.506 43.88C184.506 44.136 184.569 44.3237 184.684 44.4375C184.804 44.5512 184.93 44.6309 185.068 44.6764C185.126 44.6934 185.183 44.7048 185.24 44.7105C185.298 44.7162 185.349 44.7162 185.401 44.7162H185.992V45.0859H185.849H180.517V44.7162H181.108C181.154 44.7162 181.205 44.7162 181.263 44.7105C181.32 44.7048 181.378 44.6934 181.435 44.6764C181.567 44.6366 181.699 44.5569 181.82 44.4375C181.94 44.3237 181.997 44.136 181.997 43.88V36.1723H181.71C181.699 36.1723 181.693 36.1723 181.682 36.1723C181.578 36.1723 181.469 36.1723 181.355 36.1723C181.246 36.1723 181.136 36.178 181.033 36.195C180.631 36.2292 180.253 36.3771 179.897 36.633C179.541 36.889 179.305 37.4294 179.191 38.2542H179.047H178.628V35.5522H178.772H187.881V38.2485H187.737H187.318C187.203 37.4237 186.968 36.889 186.612 36.6273C186.256 36.3714 185.878 36.2235 185.476 36.1893C185.372 36.1723 185.263 36.1666 185.149 36.1666C185.04 36.1666 184.93 36.1666 184.827 36.1666C184.816 36.1666 184.81 36.1666 184.798 36.1666H184.511V43.88H184.506Z" fill="white"/>
<path d="M200.531 38.6123H200.388H199.957C199.831 37.9013 199.498 37.304 198.964 36.8148C198.425 36.3256 197.788 36.0753 197.047 36.0582C197.036 36.0582 197.03 36.0582 197.024 36.0582C197.019 36.0582 197.013 36.0582 197.001 36.0582C196.221 36.0867 195.509 36.4052 194.86 37.0139C194.212 37.6282 193.885 38.7318 193.885 40.3359C193.885 41.6783 194.177 42.7136 194.763 43.436C195.348 44.1585 196.152 44.5225 197.168 44.5396C197.851 44.5225 198.442 44.3348 198.941 43.9821C199.441 43.6238 199.894 43.1289 200.307 42.4861H200.451L200.91 42.7193C200.623 43.2426 200.307 43.6636 199.974 43.9935C199.636 44.3177 199.297 44.5737 198.953 44.7671C198.54 44.989 198.138 45.1369 197.742 45.2051C197.346 45.2734 196.99 45.3075 196.663 45.3075L196.519 45.3189C194.883 45.3075 193.575 44.824 192.576 43.8513C191.583 42.8843 191.084 41.7125 191.084 40.3416C191.084 38.9877 191.56 37.8216 192.513 36.8375C193.466 35.8535 194.769 35.3643 196.433 35.3643H196.577C197.03 35.3643 197.403 35.3984 197.702 35.4723C198 35.5463 198.264 35.6202 198.494 35.6999C198.534 35.7169 198.568 35.734 198.603 35.7454C198.637 35.7568 198.672 35.7738 198.712 35.7909C198.884 35.8535 199.022 35.899 199.131 35.9388C199.234 35.9786 199.332 36.0014 199.418 36.007C199.544 35.99 199.653 35.9388 199.751 35.8478C199.848 35.7568 199.917 35.5975 199.952 35.3643H200.095H200.526V38.6123H200.531Z" fill="white"/>
<path d="M211.127 36.8264C211.213 36.7297 211.276 36.6501 211.322 36.5818C211.368 36.5136 211.397 36.4453 211.414 36.3771C211.414 36.3657 211.414 36.36 211.414 36.3429C211.414 36.3316 211.414 36.3202 211.414 36.3088C211.414 36.195 211.374 36.104 211.299 36.0301C211.225 35.9561 211.081 35.922 210.88 35.922H210.346V35.5522H210.49H214.456V35.922C213.916 35.9334 213.486 36.0016 213.153 36.1325C212.82 36.2633 212.516 36.4624 212.24 36.7184C212.183 36.7696 212.126 36.8208 212.068 36.8776C212.011 36.9345 211.953 36.9914 211.896 37.0483L210.054 38.9482L213.67 44.0393C213.681 44.0507 213.687 44.0564 213.693 44.0677C213.698 44.0791 213.704 44.0848 213.716 44.0962C213.842 44.2668 213.974 44.409 214.112 44.5285C214.249 44.6423 214.439 44.7048 214.68 44.7162V45.0859H214.536H209.996V44.7162H210.329C210.473 44.7162 210.599 44.6991 210.714 44.665C210.823 44.6309 210.88 44.5455 210.88 44.409C210.88 44.3863 210.869 44.3465 210.851 44.2953C210.834 44.2441 210.811 44.1929 210.783 44.1417C210.771 44.1303 210.765 44.1246 210.76 44.1075C210.754 44.0962 210.748 44.0848 210.737 44.0734C210.719 44.0279 210.696 43.9938 210.674 43.9653C210.651 43.9369 210.633 43.9085 210.622 43.88L208.401 40.6547L208.142 40.9107V43.88C208.142 44.136 208.2 44.3237 208.32 44.4375C208.441 44.5512 208.567 44.6309 208.705 44.6764C208.762 44.6934 208.82 44.7048 208.877 44.7105C208.934 44.7162 208.986 44.7162 209.038 44.7162H209.428V45.0859H209.284H204.256V44.7162H204.744C204.79 44.7162 204.848 44.7162 204.905 44.7105C204.962 44.7048 205.02 44.6934 205.077 44.6764C205.209 44.6366 205.341 44.5569 205.462 44.4375C205.582 44.3237 205.64 44.136 205.64 43.88V36.7639C205.64 36.5079 205.577 36.3202 205.462 36.2064C205.341 36.0926 205.215 36.013 205.077 35.9675C205.02 35.9504 204.962 35.9391 204.905 35.9334C204.848 35.9277 204.796 35.9277 204.744 35.9277H204.256V35.5522H204.4H209.531V35.922H209.043C208.997 35.922 208.94 35.922 208.883 35.9277C208.825 35.9334 208.768 35.9447 208.71 35.9618C208.573 36.0016 208.446 36.0813 208.326 36.2007C208.205 36.3145 208.148 36.5022 208.148 36.7582V39.9835L211.127 36.8264Z" fill="white"/>
<path d="M219.059 36.7636C220.047 35.8307 221.35 35.3643 222.974 35.3643H223.117C224.811 35.3643 226.131 35.8478 227.078 36.8148C228.031 37.7818 228.501 38.9536 228.501 40.3245C228.501 41.6954 228.025 42.8615 227.078 43.8285C226.125 44.7899 224.805 45.2734 223.117 45.2734L222.974 45.2848C221.281 45.2734 219.96 44.7899 219.008 43.8285C218.055 42.8615 217.578 41.6954 217.578 40.3245C217.578 38.8797 218.072 37.6965 219.059 36.7636ZM220.385 41.0356C220.397 41.2858 220.425 41.5418 220.466 41.7978C220.58 42.5032 220.827 43.1516 221.2 43.7432C221.573 44.3405 222.188 44.6477 223.043 44.6647C223.886 44.6477 224.501 44.3405 224.879 43.7432C225.258 43.1459 225.499 42.4975 225.608 41.7978C225.654 41.5418 225.689 41.2858 225.7 41.0356C225.712 40.7796 225.723 40.5464 225.723 40.3245C225.723 40.1027 225.717 39.8638 225.7 39.6135C225.689 39.3575 225.66 39.1072 225.62 38.8512C225.505 38.1516 225.258 37.4974 224.885 36.9058C224.512 36.3085 223.898 36.0014 223.043 35.9843C222.199 36.0014 221.585 36.3085 221.206 36.9058C220.827 37.5031 220.58 38.1516 220.477 38.8512C220.431 39.1072 220.397 39.3632 220.385 39.6135C220.374 39.8638 220.362 40.1027 220.362 40.3245C220.362 40.5464 220.368 40.7796 220.385 41.0356Z" fill="white"/>
<path d="M240.796 38.2542H240.652H240.233C240.222 38.1461 240.205 38.0267 240.176 37.9015C240.147 37.7764 240.107 37.6513 240.061 37.5204C239.918 37.1848 239.654 36.8776 239.275 36.5932C238.896 36.3088 238.316 36.1723 237.541 36.1723H235.911V39.9607H235.997C236.009 39.9607 236.015 39.9607 236.026 39.9607C236.129 39.9607 236.25 39.955 236.388 39.9494C236.52 39.9437 236.663 39.9152 236.807 39.8754C237.065 39.7901 237.306 39.608 237.53 39.3236C237.754 39.0392 237.892 38.5614 237.949 37.8845H238.092H238.494V42.6627H238.351H237.949C237.892 41.9915 237.754 41.5137 237.53 41.2292C237.306 40.9448 237.071 40.7571 236.807 40.6718C236.663 40.632 236.52 40.6035 236.382 40.5978C236.244 40.5865 236.118 40.5864 236.015 40.5864H235.997H235.911V43.7207C235.911 44.0962 236.026 44.318 236.25 44.3806C236.474 44.4432 236.738 44.4773 237.036 44.4773C237.048 44.4773 237.054 44.4773 237.065 44.4773C237.077 44.4773 237.082 44.4773 237.088 44.4773C237.094 44.4773 237.1 44.4773 237.111 44.4773C237.14 44.4773 237.168 44.4773 237.197 44.4773C237.226 44.4773 237.254 44.4773 237.283 44.4773C237.473 44.4773 237.679 44.4659 237.897 44.4488C238.115 44.4261 238.334 44.392 238.552 44.3408C239.022 44.2213 239.464 43.9938 239.878 43.6639C240.291 43.3339 240.595 42.8163 240.784 42.1166H240.928H241.347L240.802 45.0973H240.658H232.026V44.7276H232.513C232.542 44.7276 232.6 44.7219 232.686 44.7162C232.772 44.7048 232.858 44.6821 232.944 44.6366C233.059 44.5967 233.162 44.5171 233.26 44.3977C233.357 44.2839 233.403 44.1132 233.403 43.8914V36.7639C233.403 36.542 233.357 36.3714 233.26 36.2576C233.162 36.1438 233.059 36.0642 232.944 36.0187C232.858 35.9732 232.772 35.9504 232.686 35.9391C232.6 35.9334 232.542 35.9277 232.513 35.9277H232.026V35.5522H232.169H240.802V38.2542H240.796Z" fill="white"/>
<path d="M100.068 73.1922C100.068 73.124 100.102 73.0899 100.165 73.0899L100.601 73.0671C100.917 73.0443 101.118 73.0045 101.21 72.942C101.302 72.8794 101.348 72.7429 101.348 72.5267V66.059C101.348 65.8429 101.302 65.7007 101.21 65.6438C101.118 65.5812 100.917 65.5414 100.601 65.5186L100.165 65.4959C100.102 65.4959 100.068 65.4674 100.068 65.4106V65.1546L100.096 65.1318C100.997 65.1489 101.606 65.1546 101.927 65.1546C102.122 65.1546 102.421 65.1489 102.823 65.1432C103.225 65.1318 103.506 65.1318 103.672 65.1318C105.739 65.1318 106.766 65.7917 106.766 67.1114C106.766 67.4413 106.634 67.7655 106.376 68.0784C106.117 68.3913 105.802 68.6302 105.429 68.7951V68.8179C106.1 68.9885 106.634 69.2616 107.024 69.637C107.42 70.0124 107.615 70.4903 107.615 71.0762C107.615 71.3094 107.581 71.5369 107.518 71.7531C107.449 71.9692 107.334 72.1854 107.162 72.3959C106.99 72.6063 106.772 72.7941 106.508 72.9476C106.244 73.1012 105.894 73.2264 105.463 73.3231C105.033 73.4198 104.539 73.4653 103.988 73.4653C103.5 73.4653 103.07 73.4653 102.696 73.4539C102.323 73.4482 102.065 73.4425 101.927 73.4425C101.606 73.4425 100.997 73.4539 100.096 73.4653L100.068 73.4425V73.1922ZM102.513 66.1102V68.7269H103.58C104.958 68.7269 105.647 68.232 105.647 67.2536C105.647 66.9464 105.589 66.6734 105.469 66.4402C105.348 66.2069 105.193 66.0306 104.998 65.9111C104.803 65.7917 104.602 65.7007 104.395 65.6438C104.189 65.5869 103.976 65.5585 103.753 65.5585C103.54 65.5585 103.368 65.5585 103.225 65.5698C103.081 65.5755 102.966 65.5926 102.874 65.6153C102.783 65.6381 102.708 65.6609 102.662 65.6779C102.616 65.695 102.576 65.7348 102.553 65.786C102.53 65.8372 102.519 65.8827 102.513 65.9225C102.519 65.9623 102.513 66.0249 102.513 66.1102ZM102.513 69.1706V72.4357C102.513 72.6575 102.593 72.8111 102.748 72.8964C102.903 72.9818 103.225 73.0216 103.707 73.0216C104.235 73.0216 104.682 72.9818 105.038 72.8964C105.394 72.8111 105.664 72.686 105.848 72.521C106.031 72.3561 106.158 72.1797 106.226 71.9863C106.295 71.7929 106.33 71.5711 106.33 71.3208C106.33 71.025 106.272 70.7462 106.163 70.496C106.049 70.24 105.882 70.0181 105.664 69.819C105.446 69.62 105.147 69.4664 104.774 69.3469C104.401 69.2331 103.976 69.1763 103.5 69.1763H102.513V69.1706Z" fill="white"/>
<path d="M115.978 65.1318C115.99 65.1887 116.041 65.456 116.122 65.9225C116.202 66.3946 116.26 66.753 116.294 66.9919L115.881 67.0545C115.789 66.7985 115.703 66.5937 115.634 66.4515C115.565 66.3093 115.468 66.1671 115.347 66.0305C115.226 65.894 115.071 65.7973 114.894 65.7404C114.716 65.6836 114.492 65.6551 114.228 65.6551H112.707C112.362 65.6551 112.19 65.803 112.19 66.0931V68.7894H114.021C114.262 68.7894 114.44 68.7496 114.543 68.6643C114.647 68.5789 114.716 68.4424 114.739 68.2547L114.779 67.9305C114.779 67.9077 114.79 67.885 114.807 67.8622C114.83 67.8394 114.853 67.8338 114.882 67.8338H115.198L115.255 67.885C115.215 68.34 115.198 68.7268 115.198 69.0454C115.198 69.3355 115.215 69.7052 115.255 70.1603L115.198 70.2001H114.882C114.848 70.2001 114.825 70.1887 114.802 70.166C114.784 70.1432 114.773 70.1205 114.773 70.1034L114.733 69.7792C114.716 69.5971 114.652 69.4663 114.549 69.3981C114.446 69.3241 114.268 69.29 114.015 69.29H112.184V72.521C112.184 72.6859 112.225 72.794 112.311 72.8566C112.397 72.9135 112.523 72.9419 112.701 72.9419H114.664C115.605 72.9419 116.254 72.3788 116.604 71.2581L117.052 71.3207C116.948 71.7189 116.77 72.43 116.518 73.4652C115.749 73.4482 115.135 73.4425 114.675 73.4425H111.593C111.272 73.4425 110.663 73.4539 109.762 73.4652L109.733 73.4425V73.1865C109.733 73.1296 109.774 73.1012 109.848 73.1012L110.279 73.0784C110.554 73.0614 110.749 73.0102 110.858 72.9305C110.968 72.8452 111.019 72.7144 111.019 72.5267V66.0988C111.019 65.8997 110.962 65.7632 110.853 65.6722C110.744 65.5869 110.554 65.53 110.279 65.5129L109.848 65.4902C109.774 65.4902 109.733 65.4617 109.733 65.4048V65.1488L109.762 65.1261C110.663 65.1432 111.272 65.1488 111.593 65.1488H115.238C115.468 65.1488 115.691 65.1318 115.915 65.0977C115.961 65.0977 115.978 65.109 115.978 65.1318Z" fill="white"/>
<path d="M126.241 72.4812V69.3128H121.54V72.5096C121.54 72.703 121.598 72.8395 121.718 72.9135C121.833 72.9931 122.04 73.0386 122.338 73.0614L122.711 73.0841C122.786 73.0841 122.826 73.1183 122.826 73.1865V73.4311L122.797 73.4539C121.839 73.4368 121.225 73.4311 120.955 73.4311C120.702 73.4311 120.094 73.4425 119.141 73.4539L119.112 73.4311V73.1865C119.112 73.1183 119.147 73.0841 119.21 73.0841L119.6 73.0614C119.893 73.0443 120.094 72.9931 120.209 72.9078C120.323 72.8225 120.381 72.6916 120.381 72.5096V66.0533C120.381 65.8713 120.323 65.7405 120.203 65.6608C120.082 65.5812 119.881 65.5357 119.6 65.5129L119.21 65.4902C119.135 65.4902 119.095 65.456 119.095 65.3878V65.1432L119.124 65.1204C120.082 65.1375 120.691 65.1432 120.955 65.1432C121.225 65.1432 121.844 65.1318 122.797 65.1204L122.826 65.1432V65.3878C122.826 65.456 122.786 65.4902 122.711 65.4902L122.338 65.5129C122.045 65.5357 121.844 65.5869 121.724 65.6608C121.603 65.7405 121.546 65.8713 121.546 66.0476V68.7667H126.247V66.0476C126.247 65.8599 126.189 65.7291 126.069 65.6495C125.954 65.5755 125.748 65.53 125.466 65.5072L125.093 65.4845C125.007 65.4845 124.961 65.4504 124.961 65.3821V65.1375L124.99 65.1147C125.948 65.1318 126.563 65.1375 126.838 65.1375C127.102 65.1375 127.711 65.1261 128.669 65.1147L128.698 65.1375V65.3821C128.698 65.4504 128.658 65.4845 128.577 65.4845L128.204 65.5072C127.911 65.53 127.711 65.5812 127.59 65.6551C127.475 65.7348 127.412 65.8656 127.412 66.0419V72.4698C127.412 72.6632 127.469 72.8054 127.584 72.8964C127.699 72.9817 127.906 73.0386 128.198 73.0557L128.571 73.0784C128.658 73.0784 128.703 73.1126 128.703 73.1808V73.4254L128.675 73.4482C127.716 73.4311 127.102 73.4254 126.832 73.4254C126.563 73.4254 125.954 73.4368 124.996 73.4482L124.967 73.4254V73.1808C124.967 73.1126 125.007 73.0784 125.087 73.0784L125.461 73.0557C125.759 73.0386 125.96 72.9817 126.075 72.8907C126.184 72.8111 126.241 72.6746 126.241 72.4812Z" fill="white"/>
<path d="M132.991 66.0589V72.5265C132.991 72.7143 133.049 72.8451 133.169 72.9247C133.29 72.9987 133.49 73.0499 133.789 73.0669L134.162 73.0897C134.237 73.0897 134.277 73.1238 134.277 73.1921V73.4367L134.248 73.4594C133.789 73.4424 133.181 73.4367 132.417 73.4367C131.665 73.4367 131.057 73.4481 130.586 73.4594L130.557 73.4367V73.1921C130.557 73.1238 130.592 73.0897 130.655 73.0897L131.045 73.0669C131.338 73.0499 131.545 72.9987 131.654 72.919C131.769 72.8394 131.82 72.7086 131.82 72.5265V66.0589C131.82 65.8712 131.763 65.7403 131.642 65.6607C131.522 65.5867 131.321 65.5412 131.04 65.5185L130.649 65.4957C130.575 65.4957 130.534 65.4616 130.534 65.3933V65.1487L130.563 65.126C131.522 65.143 132.13 65.1487 132.394 65.1487C132.687 65.1487 133.301 65.1374 134.237 65.126L134.265 65.1487V65.3933C134.265 65.4616 134.225 65.4957 134.151 65.4957L133.777 65.5185C133.485 65.5412 133.284 65.5924 133.163 65.6664C133.054 65.746 132.991 65.8768 132.991 66.0589Z" fill="white"/>
<path d="M144.58 66.275V73.1636C144.58 73.4253 144.476 73.5618 144.276 73.5618C144.057 73.5618 143.868 73.4594 143.696 73.2547L138.662 67.589C138.421 67.3103 138.255 67.1681 138.18 67.1681C138.082 67.1681 138.031 67.3786 138.031 67.7938V72.3047C138.031 72.5152 138.094 72.6915 138.226 72.828C138.358 72.9702 138.553 73.0499 138.828 73.0669L139.202 73.0897C139.276 73.0897 139.316 73.1238 139.316 73.1921V73.4367L139.288 73.4594C138.387 73.4424 137.864 73.4367 137.721 73.4367C137.531 73.4367 136.98 73.4481 136.079 73.4594L136.05 73.4367V73.2035C136.05 73.1409 136.114 73.1011 136.234 73.0897L136.607 73.0669C136.877 73.0499 137.078 72.9702 137.204 72.8223C137.33 72.6744 137.388 72.5038 137.388 72.3104V66.3717C137.342 66.1897 137.221 66.002 137.026 65.8086C136.831 65.6152 136.624 65.5128 136.412 65.4957C136.246 65.4787 136.165 65.4445 136.165 65.3933V65.1487L136.205 65.126H138.168L143.11 70.8314C143.455 71.2353 143.667 71.4571 143.736 71.5026C143.77 71.5311 143.805 71.5425 143.828 71.5425C143.874 71.5425 143.902 71.514 143.914 71.4514C143.925 71.3946 143.931 71.2922 143.931 71.15V66.2807C143.931 66.0816 143.868 65.9053 143.747 65.7631C143.627 65.6209 143.426 65.5355 143.151 65.5185L142.777 65.4957C142.737 65.4957 142.691 65.4843 142.645 65.4673C142.6 65.4502 142.577 65.4275 142.577 65.3933V65.1487L142.605 65.126C143.506 65.143 144.057 65.1487 144.264 65.1487C144.408 65.1487 144.93 65.1374 145.831 65.126L145.86 65.1487V65.3933C145.86 65.4616 145.82 65.4957 145.745 65.4957L145.355 65.5185C145.085 65.5355 144.89 65.6152 144.763 65.7574C144.643 65.8939 144.58 66.0702 144.58 66.275Z" fill="white"/>
<path d="M147.519 73.2036C147.519 73.1297 147.553 73.0899 147.616 73.0899L148.052 73.0671C148.316 73.0557 148.506 73.0045 148.621 72.9192C148.735 72.8282 148.799 72.686 148.799 72.4869V66.0932C148.799 65.8656 148.753 65.7234 148.655 65.6552C148.557 65.5869 148.357 65.5471 148.052 65.5243L147.645 65.5016C147.559 65.5016 147.519 65.4674 147.519 65.3992V65.1546L147.547 65.1318C148.448 65.1489 149.057 65.1546 149.378 65.1546C149.545 65.1546 149.889 65.1489 150.423 65.1432C150.957 65.1318 151.393 65.1318 151.726 65.1318C152.409 65.1318 153.052 65.2456 153.666 65.4788C154.28 65.712 154.808 66.0192 155.25 66.4117C155.692 66.8042 156.042 67.265 156.3 67.8054C156.559 68.3401 156.691 68.9032 156.691 69.4948C156.691 69.9328 156.639 70.3367 156.536 70.7121C156.432 71.0819 156.289 71.4004 156.111 71.6735C155.933 71.9408 155.721 72.1854 155.468 72.3959C155.221 72.6063 154.957 72.7827 154.682 72.9135C154.406 73.05 154.114 73.1581 153.798 73.2434C153.482 73.3344 153.172 73.3913 152.88 73.4312C152.587 73.471 152.283 73.4823 151.978 73.4823C151.404 73.4823 150.853 73.4824 150.331 73.471C149.803 73.4653 149.482 73.4596 149.373 73.4596C149.051 73.4596 148.443 73.471 147.542 73.4823L147.513 73.4596V73.2036H147.519ZM149.964 72.4983C149.964 72.6518 149.998 72.7599 150.061 72.8225C150.124 72.8908 150.268 72.942 150.492 72.9761C150.71 73.0102 151.06 73.0273 151.531 73.0273C151.961 73.0273 152.357 72.9988 152.713 72.942C153.069 72.8851 153.419 72.7827 153.752 72.6348C154.091 72.4869 154.372 72.2935 154.601 72.0546C154.831 71.8157 155.015 71.5028 155.152 71.1217C155.29 70.7406 155.359 70.2969 155.359 69.7906C155.359 69.3754 155.313 68.9772 155.227 68.5904C155.135 68.2036 154.986 67.8224 154.779 67.4527C154.567 67.0829 154.303 66.7587 153.993 66.4857C153.683 66.2126 153.281 65.9851 152.799 65.8201C152.311 65.6495 151.772 65.5698 151.169 65.5698C150.968 65.5698 150.802 65.5755 150.675 65.5869C150.549 65.5983 150.423 65.6153 150.308 65.6495C150.188 65.6779 150.101 65.7291 150.044 65.7974C149.987 65.8656 149.958 65.9566 149.958 66.0647V72.4983H149.964Z" fill="white"/>
<path d="M164.767 65.1487H170.862C171.075 65.1487 171.178 65.052 171.178 64.853L171.551 64.8018C171.551 65.3877 171.614 66.0475 171.74 66.7813L171.304 66.8439C171.178 66.3262 171.052 65.9963 170.931 65.8598C170.811 65.7233 170.558 65.655 170.174 65.655H169.221C168.951 65.655 168.767 65.6948 168.67 65.7631C168.572 65.837 168.52 65.9793 168.52 66.1954V72.5209C168.52 72.7143 168.578 72.8508 168.698 72.9247C168.819 73.0044 169.026 73.0499 169.313 73.0726L169.686 73.0954C169.772 73.0954 169.818 73.1295 169.818 73.1978V73.4424L169.783 73.4651C168.882 73.4481 168.268 73.4424 167.941 73.4424C167.619 73.4424 167.011 73.4538 166.11 73.4651L166.081 73.4424V73.1978C166.081 73.1295 166.115 73.0954 166.196 73.0954L166.575 73.0726C166.873 73.0556 167.074 73.0044 167.183 72.9247C167.292 72.8394 167.35 72.7086 167.35 72.5209V66.1556C167.35 65.9565 167.298 65.8257 167.2 65.7574C167.103 65.6891 166.919 65.655 166.644 65.655H165.45C165.054 65.655 164.778 65.7233 164.629 65.8655C164.48 66.0077 164.33 66.3319 164.187 66.8439L163.751 66.7813C163.888 66.2239 163.997 65.564 164.066 64.8018L164.462 64.853C164.462 65.0464 164.56 65.1487 164.767 65.1487Z" fill="white"/>
<path d="M180.586 72.4812V69.3128H175.885V72.5096C175.885 72.703 175.942 72.8395 176.063 72.9135C176.177 72.9931 176.384 73.0386 176.682 73.0614L177.056 73.0841C177.13 73.0841 177.17 73.1183 177.17 73.1865V73.4311L177.142 73.4539C176.183 73.4368 175.569 73.4311 175.299 73.4311C175.047 73.4311 174.444 73.4425 173.485 73.4539L173.457 73.4311V73.1865C173.457 73.1183 173.491 73.0841 173.554 73.0841L173.945 73.0614C174.237 73.0443 174.438 72.9931 174.553 72.9078C174.668 72.8225 174.725 72.6916 174.725 72.5096V66.0533C174.725 65.8713 174.668 65.7405 174.547 65.6608C174.427 65.5812 174.226 65.5357 173.945 65.5129L173.554 65.4902C173.48 65.4902 173.439 65.456 173.439 65.3878V65.1432L173.468 65.1204C174.427 65.1375 175.035 65.1432 175.299 65.1432C175.569 65.1432 176.189 65.1318 177.142 65.1204L177.17 65.1432V65.3878C177.17 65.456 177.13 65.4902 177.056 65.4902L176.682 65.5129C176.39 65.5357 176.189 65.5869 176.068 65.6608C175.948 65.7405 175.89 65.8713 175.89 66.0476V68.7667H180.591V66.0476C180.591 65.8599 180.534 65.7291 180.413 65.6495C180.299 65.5755 180.092 65.53 179.811 65.5072L179.438 65.4845C179.351 65.4845 179.306 65.4504 179.306 65.3821V65.1375L179.334 65.1147C180.293 65.1318 180.907 65.1375 181.182 65.1375C181.446 65.1375 182.055 65.1261 183.013 65.1147L183.042 65.1375V65.3821C183.042 65.4504 183.002 65.4845 182.922 65.4845L182.549 65.5072C182.256 65.53 182.055 65.5812 181.934 65.6551C181.82 65.7348 181.756 65.8656 181.756 66.0419V72.4698C181.756 72.6632 181.814 72.8054 181.929 72.8964C182.043 72.9817 182.25 73.0386 182.543 73.0557L182.916 73.0784C183.008 73.0784 183.048 73.1126 183.048 73.1808V73.4254L183.019 73.4482C182.061 73.4311 181.446 73.4254 181.177 73.4254C180.907 73.4254 180.299 73.4368 179.34 73.4482L179.311 73.4254V73.1808C179.311 73.1126 179.351 73.0784 179.432 73.0784L179.805 73.0557C180.103 73.0386 180.304 72.9817 180.419 72.8907C180.528 72.8111 180.586 72.6746 180.586 72.4812Z" fill="white"/>
<path d="M191.049 65.1318C191.061 65.1887 191.112 65.456 191.193 65.9225C191.273 66.3946 191.33 66.753 191.365 66.9919L190.952 67.0545C190.86 66.7985 190.774 66.5937 190.705 66.4515C190.636 66.3093 190.538 66.1671 190.418 66.0305C190.297 65.894 190.142 65.7973 189.964 65.7404C189.781 65.6836 189.563 65.6551 189.298 65.6551H187.777C187.433 65.6551 187.261 65.803 187.261 66.0931V68.7894H189.092C189.333 68.7894 189.511 68.7496 189.614 68.6643C189.718 68.5789 189.786 68.4424 189.809 68.2547L189.85 67.9305C189.85 67.9077 189.861 67.885 189.878 67.8622C189.901 67.8394 189.924 67.8338 189.953 67.8338H190.269L190.326 67.885C190.286 68.34 190.269 68.7268 190.269 69.0454C190.269 69.3355 190.286 69.7052 190.326 70.1603L190.269 70.2001H189.953C189.918 70.2001 189.895 70.1887 189.878 70.166C189.861 70.1432 189.85 70.1205 189.85 70.1034L189.809 69.7792C189.792 69.5971 189.729 69.4663 189.626 69.3981C189.522 69.3241 189.344 69.29 189.092 69.29H187.261V72.521C187.261 72.6859 187.301 72.794 187.387 72.8566C187.473 72.9135 187.6 72.9419 187.777 72.9419H189.74C190.682 72.9419 191.33 72.3788 191.681 71.2581L192.128 71.3207C192.025 71.7189 191.847 72.43 191.594 73.4652C190.825 73.4482 190.211 73.4425 189.752 73.4425H186.67C186.348 73.4425 185.74 73.4539 184.839 73.4652L184.81 73.4425V73.1865C184.81 73.1296 184.85 73.1012 184.925 73.1012L185.355 73.0784C185.631 73.0614 185.826 73.0102 185.935 72.9305C186.044 72.8452 186.096 72.7144 186.096 72.5267V66.0988C186.096 65.8997 186.038 65.7632 185.929 65.6722C185.82 65.5869 185.625 65.53 185.355 65.5129L184.925 65.4902C184.85 65.4902 184.81 65.4617 184.81 65.4048V65.1488L184.839 65.1261C185.74 65.1432 186.348 65.1488 186.67 65.1488H190.314C190.544 65.1488 190.768 65.1318 190.992 65.0977C191.032 65.0977 191.049 65.109 191.049 65.1318Z" fill="white"/>
<path d="M210.209 66.1725C210.249 66.0701 210.266 65.9734 210.266 65.8994C210.266 65.797 210.237 65.7231 210.18 65.6662C210.065 65.5695 209.864 65.5183 209.577 65.5012L209.342 65.4899C209.313 65.4899 209.284 65.4785 209.262 65.4614C209.233 65.4444 209.221 65.4216 209.221 65.3875V65.1429L209.256 65.1201C210.025 65.1372 210.553 65.1429 210.84 65.1429C211.006 65.1429 211.448 65.1315 212.16 65.1201L212.189 65.1429V65.3875C212.189 65.4557 212.149 65.4899 212.074 65.4899C211.707 65.5069 211.437 65.5866 211.265 65.7231C211.093 65.8653 210.955 66.0644 210.851 66.3204L208.154 73.2886C208.085 73.4877 207.953 73.5901 207.769 73.5901C207.545 73.5901 207.396 73.4877 207.316 73.2772L205.628 68.7152C205.536 68.4763 205.468 68.3568 205.433 68.3568C205.37 68.3568 205.307 68.4649 205.226 68.681L203.51 73.2772C203.447 73.4877 203.309 73.5901 203.108 73.5901C202.885 73.5901 202.735 73.4877 202.667 73.2772L200.043 66.2862C199.911 65.9392 199.797 65.7231 199.693 65.6378C199.59 65.5524 199.383 65.5012 199.062 65.4899C198.941 65.4728 198.884 65.4444 198.884 65.4045V65.1486L198.913 65.1258C199.682 65.1429 200.147 65.1486 200.313 65.1486C200.503 65.1486 201.054 65.1372 201.955 65.1258L201.983 65.1486V65.3932C201.983 65.4614 201.943 65.4955 201.857 65.4955L201.542 65.5069C201.266 65.5183 201.134 65.6036 201.134 65.7515C201.134 65.8198 201.163 65.9336 201.226 66.0871L203.384 72.0144H203.413L204.939 67.7595C205.008 67.5718 205.037 67.4125 205.037 67.2703C205.037 67.1338 205.014 67.02 204.968 66.9119L204.756 66.3147C204.716 66.2123 204.681 66.1213 204.641 66.053C204.601 65.9791 204.543 65.8994 204.469 65.8084C204.394 65.7117 204.285 65.6378 204.159 65.5866C204.027 65.5354 203.872 65.5012 203.688 65.4955C203.573 65.4955 203.51 65.4671 203.51 65.4102V65.1542L203.545 65.1315C204.314 65.1486 204.807 65.1542 205.02 65.1542C205.29 65.1542 205.881 65.1429 206.776 65.1315L206.805 65.1542V65.4102C206.805 65.4671 206.765 65.4955 206.679 65.4955L206.265 65.5183C205.996 65.5354 205.858 65.6605 205.858 65.8994C205.858 66.0132 205.887 66.1497 205.95 66.3147L208.016 72.0372H208.05L210.209 66.1725Z" fill="white"/>
<path d="M215.759 72.4187C215.719 72.4984 215.702 72.5723 215.702 72.6406C215.702 72.7259 215.73 72.7941 215.788 72.8624C215.891 72.9819 216.075 73.0501 216.339 73.0672L216.758 73.0899C216.832 73.0899 216.872 73.1241 216.872 73.1923V73.4369L216.844 73.4597C216.132 73.4426 215.501 73.4369 214.955 73.4369C214.783 73.4369 214.341 73.4483 213.624 73.4597L213.595 73.4369V73.1923C213.595 73.1241 213.635 73.0899 213.71 73.0899C214.06 73.0672 214.341 72.9932 214.542 72.8681C214.749 72.743 214.932 72.4927 215.11 72.1229L218.313 65.4391C218.405 65.2628 218.485 65.1376 218.548 65.0694C218.612 65.0068 218.698 64.9727 218.795 64.9727C218.887 64.9727 218.962 65.0011 219.019 65.0637C219.077 65.1262 219.134 65.2229 219.186 65.3595L222.142 72.3277C222.245 72.578 222.377 72.76 222.532 72.8738C222.687 72.9819 222.911 73.0501 223.203 73.0786L223.364 73.0899C223.456 73.0899 223.502 73.1241 223.502 73.1923V73.4369L223.473 73.4597C222.762 73.4426 222.199 73.4369 221.786 73.4369C221.223 73.4369 220.586 73.4483 219.869 73.4597L219.857 73.4369V73.1923C219.857 73.1241 219.892 73.0899 219.955 73.0899L220.362 73.0672C220.638 73.0444 220.827 72.9932 220.925 72.9022C220.982 72.8567 221.011 72.7941 221.011 72.7088C221.011 72.6519 220.999 72.5837 220.971 72.5154L220.093 70.3368H217.096C216.93 70.3368 216.809 70.3538 216.746 70.3823C216.683 70.4107 216.631 70.4733 216.591 70.5586L215.759 72.4187ZM217.366 69.7964H219.869L218.468 66.372H218.439L216.999 69.6371C216.987 69.6599 216.987 69.6769 216.987 69.694C216.987 69.7281 217.004 69.7509 217.045 69.7623C217.096 69.785 217.205 69.7964 217.366 69.7964Z" fill="white"/>
<path d="M229.988 72.9361C230.252 72.9361 230.482 72.8963 230.688 72.811C230.895 72.7256 231.061 72.6005 231.199 72.4412C231.337 72.2763 231.452 72.0999 231.543 71.9179C231.635 71.7359 231.721 71.514 231.802 71.258L232.232 71.3206C232.031 72.1454 231.905 72.8622 231.859 73.4651C230.975 73.4481 230.401 73.4424 230.143 73.4424H227.061C226.739 73.4424 226.131 73.4537 225.23 73.4651L225.201 73.4424V73.1978C225.201 73.1295 225.235 73.0954 225.316 73.0954L225.752 73.0726C226.05 73.0499 226.251 73.0101 226.343 72.9418C226.435 72.8735 226.487 72.737 226.487 72.5152V66.0589C226.487 65.8768 226.429 65.746 226.309 65.6664C226.188 65.5867 225.987 65.5412 225.706 65.5185L225.321 65.4957C225.247 65.4957 225.207 65.4616 225.207 65.3933V65.1487L225.235 65.126C226.137 65.143 226.745 65.1487 227.066 65.1487C227.394 65.1487 228.008 65.1374 228.909 65.126L228.938 65.1487V65.3933C228.938 65.4616 228.897 65.4957 228.823 65.4957L228.45 65.5185C228.151 65.5355 227.95 65.5867 227.83 65.6664C227.709 65.7517 227.652 65.8768 227.652 66.0589V72.299C227.652 72.4981 227.715 72.6517 227.835 72.7655C227.956 72.8792 228.122 72.9361 228.329 72.9361H229.988Z" fill="white"/>
<path d="M238.931 72.9361C239.195 72.9361 239.424 72.8963 239.631 72.811C239.837 72.7256 240.004 72.6005 240.147 72.4412C240.285 72.2763 240.4 72.0999 240.492 71.9179C240.584 71.7359 240.67 71.514 240.75 71.258L241.181 71.3206C240.98 72.1454 240.853 72.8622 240.807 73.4651C239.918 73.4481 239.35 73.4424 239.091 73.4424H236.009C235.688 73.4424 235.079 73.4537 234.178 73.4651L234.149 73.4424V73.1978C234.149 73.1295 234.184 73.0954 234.264 73.0954L234.7 73.0726C234.999 73.0499 235.2 73.0101 235.291 72.9418C235.383 72.8735 235.429 72.737 235.429 72.5152V66.0589C235.429 65.8768 235.372 65.746 235.251 65.6664C235.131 65.5867 234.93 65.5412 234.649 65.5185L234.264 65.4957C234.189 65.4957 234.149 65.4616 234.149 65.3933V65.1487L234.178 65.126C235.079 65.143 235.688 65.1487 236.009 65.1487C236.336 65.1487 236.95 65.1374 237.851 65.126L237.88 65.1487V65.3933C237.88 65.4616 237.84 65.4957 237.765 65.4957L237.392 65.5185C237.1 65.5355 236.893 65.5867 236.772 65.6664C236.652 65.7517 236.594 65.8768 236.594 66.0589V72.299C236.594 72.4981 236.658 72.6517 236.778 72.7655C236.899 72.8792 237.065 72.9361 237.272 72.9361H238.931Z" fill="white"/>
</g>
<defs>
<clipPath id="clip0_214_66">
<rect width="306" height="79" fill="white"/>
</clipPath>
</defs>
</svg>
